GO1 0 100 5.0 
GO1 100 200 25.0 
GO1 200 300 21.0 
GO1 300 400 24.0 
GO1 400 500 17.0 
GO1 500 600 18.0 
GO1 600 700 20.0 
GO1 700 800 25.0 
GO1 800 900 24.0 
GO1 900 1000 9.0 
GO1 1000 1100 40.0 
GO1 1100 1200 12.0 
GO1 1200 1300 20.0 
GO1 1300 1400 17.0 
GO1 1400 1500 28.0 
GO1 1500 1600 24.0 
GO1 1600 1700 25.0 
GO1 1700 1800 18.0 
GO1 1800 1900 18.0 
GO1 1900 2000 22.0 
GO1 2000 2100 31.0 
GO1 2100 2200 17.0 
GO1 2200 2300 21.0 
GO1 2300 2400 17.0 
GO1 2400 2500 20.0 
GO1 2500 2600 28.0 
GO1 2600 2700 26.0 
GO1 2700 2800 22.0 
GO1 2800 2900 16.0 
GO1 2900 3000 32.0 
GO1 3000 3100 21.0 
GO1 3100 3200 20.0 
GO1 3200 3300 28.0 
GO1 3300 3400 16.0 
GO1 3400 3500 18.0 
GO1 3500 3600 29.0 
GO1 3600 3700 38.0 
GO1 3700 3800 15.0 
GO1 3800 3900 41.0 
GO1 3900 4000 26.0 
GO1 4000 4100 23.0 
GO1 4100 4200 20.0 
GO1 4200 4300 21.0 
GO1 4300 4400 32.0 
GO1 4400 4500 17.0 
GO1 4500 4600 20.0 
GO1 4600 4700 25.0 
GO1 4700 4800 25.0 
GO1 4800 4900 19.0 
GO1 4900 5000 27.0 
GO1 5000 5100 7.0 
GO1 5100 5200 24.0 
GO1 5200 5300 15.0 
GO1 5300 5400 21.0 
GO1 5400 5500 35.0 
GO1 5500 5600 1.0 
GO1 5600 5700 29.0 
GO1 5700 5800 23.0 
GO1 5800 5900 16.0 
GO1 5900 6000 13.0 
GO1 6000 6100 22.0 
GO1 6100 6200 28.0 
GO1 6200 6300 28.0 
GO1 6300 6400 16.0 
GO1 6400 6500 13.0 
GO1 6500 6600 29.0 
GO1 6600 6700 25.0 
GO1 6700 6800 13.0 
GO1 6800 6900 6.0 
GO1 6900 7000 6.0 
GO1 7000 7100 12.0 
GO1 7100 7200 13.0 
GO1 7200 7300 0.01 
GO2 0 100 16.0 
GO2 100 200 10.0 
GO2 200 300 10.0 
GO2 300 400 11.0 
GO2 400 500 14.0 
GO2 500 600 12.0 
GO2 600 700 7.0 
GO2 700 800 7.0 
GO2 800 900 24.0 
GO2 900 1000 15.0 
GO2 1000 1100 15.0 
GO2 1100 1200 18.0 
GO2 1200 1300 15.0 
GO2 1300 1400 22.0 
GO2 1400 1500 19.0 
GO2 1500 1600 24.0 
GO2 1600 1700 15.0 
GO2 1700 1800 23.0 
GO2 1800 1900 19.0 
GO2 1900 2000 10.0 
GO2 2000 2100 28.0 
GO2 2100 2200 21.0 
GO2 2200 2300 15.0 
GO2 2300 2400 19.0 
GO2 2400 2500 25.0 
GO2 2500 2600 25.0 
GO2 2600 2700 21.0 
GO2 2700 2800 7.0 
GO2 2800 2900 15.0 
GO2 2900 3000 31.0 
GO2 3000 3100 31.0 
GO2 3100 3200 9.0 
GO2 3200 3300 6.0 
GO2 3300 3400 14.0 
GO2 3400 3500 16.0 
GO2 3500 3600 10.0 
GO2 3600 3700 15.0 
GO2 3700 3800 11.0 
GO2 3800 3900 5.0 
GO2 3900 4000 13.0 
GO2 4000 4100 9.0 
GO2 4100 4200 9.0 
GO2 4200 4300 10.0 
GO2 4300 4400 16.0 
GO2 4400 4500 8.0 
GO2 4500 4600 19.0 
GO2 4600 4700 25.0 
GO2 4700 4800 25.0 
GO2 4800 4900 20.0 
GO2 4900 5000 12.0 
GO2 5000 5100 7.0 
GO2 5100 5200 17.0 
GO2 5200 5300 17.0 
GO2 5300 5400 8.0 
GO2 5400 5500 3.0 
GO2 5500 5600 4.0 
GO2 5600 5700 5.0 
GO2 5700 5800 7.0 
GO2 5800 5900 6.0 
GO2 5900 6000 5.0 
GO2 6000 6100 11.0 
GO2 6100 6200 15.0 
GO2 6200 6300 15.0 
GO2 6300 6400 22.0 
GO2 6400 6500 12.0 
GO2 6500 6600 10.0 
GO2 6600 6700 18.0 
GO2 6700 6800 10.0 
GO2 6800 6900 6.0 
GO2 6900 7000 6.0 
GO2 7000 7100 24.0 
GO2 7100 7200 9.0 
GO2 7200 7300 7.0 
GO2 7300 7400 10.0 
GO2 7400 7500 11.0 
GO2 7500 7600 2.0 
GO2 7600 7700 4.0 
GO2 7700 7800 4.0 
GO2 7800 7900 4.0 
GO2 7900 8000 4.0 
GO2 8000 8100 13.0 
GO2 8100 8200 8.0 
GO2 8200 8300 12.0 
GO2 8300 8400 4.0 
GO2 8400 8500 10.0 
GO2 8500 8600 4.0 
GO2 8600 8700 21.0 
GO2 8700 8800 3.0 
GO2 8800 8900 9.0 
GO2 8900 9000 6.0 
GO2 9000 9100 15.0 
GO2 9100 9200 18.0 
GO2 9200 9300 3.0 
GO2 9300 9400 10.0 
GO2 9400 9500 8.0 
GO2 9500 9600 6.0 
GO2 9600 9700 10.0 
GO2 9700 9800 6.0 
GO2 9800 9900 13.0 
GO2 9900 10000 2.0 
GO2 10000 10100 13.0 
GO2 10100 10200 9.0 
GO2 10200 10300 14.0 
GO2 10300 10400 16.0 
GO2 10400 10500 6.0 
GO2 10500 10600 10.0 
GO2 10600 10700 3.0 
GO2 10700 10800 3.0 
GO2 10800 10900 7.0 
GO2 10900 11000 12.0 
GO2 11000 11100 7.0 
GO2 11100 11200 17.0 
GO2 11200 11300 4.0 
GO2 11300 11400 8.0 
GO2 11400 11500 12.0 
GO2 11500 11600 9.0 
GO2 11600 11700 3.0 
GO2 11700 11800 8.0 
GO2 11800 11900 10.0 
GO2 11900 12000 8.0 
GO2 12000 12100 8.0 
GO2 12100 12200 10.0 
GO2 12200 12300 6.0 
GO2 12300 12400 3.0 
GO2 12400 12500 6.0 
GO2 12500 12600 5.0 
GO2 12600 12700 7.0 
GO2 12700 12800 6.0 
GO2 12800 12900 1.0 
GO2 12900 13000 5.0 
GO2 13000 13100 3.0 
GO2 13100 13200 9.0 
GO2 13200 13300 3.0 
GO2 13300 13400 2.0 
GO2 13400 13500 2.0 
GO2 13500 13600 3.0 
GO2 13600 13700 0.01 
